iladata.vcd
$date
        2018-Jul-30 16:52:04
$end
$version
        Vivado v2017.4 (64-bit)
$end
$timescale
        1ps
$end
$scope module dut $end
$var reg 8 " mb_subsystem_i/AP_Generator_0_data_out [7:0] $end
$var reg 8 * mb_subsystem_i/HDLC_WRAP_data_out [7:0] $end
$var reg 8 2 mb_subsystem_i/inverse_reverse_TX_data_out [7:0] $end
$var reg 32 : mb_subsystem_i/HDLC_WRAP_crc_counter [31:0] $end
$var reg 8 Z mb_subsystem_i/HDLC_WRAP_crc_in [7:0] $end
$var reg 16 b mb_subsystem_i/HDLC_WRAP_crc_out [15:0] $end
$var reg 1 r mb_subsystem_i/HDLC_WRAP_crc_en $end
$var reg 1 s mb_subsystem_i/HDLC_WRAP_crc_init $end
$var reg 1 t _TRIGGER $end
$var reg 1 u _WINDOW $end
$var reg 1 v _GAP $end
$upscope $end
$enddefinitions $end
#0
$dumpvars
b11111111 "
b0 *
b0 2
b0 :
b1111110 Z
b1100000010100 b
0r
0s
0t
1u
0v
$end
#1
b0 "
b11111111 *
b11111111 2
#2
b11111111 "
b0 *
b0 2
#3
b0 "
b11111111 *
b11111111 2
#4
b11111111 "
b0 *
b0 2
#5
b0 "
b11111111 *
b11111111 2
#6
b11111111 "
b0 *
b0 2
#7
b0 "
b11111111 *
b11111111 2
#8
b11111111 "
b0 *
b0 2
#9
b0 "
b11111111 *
b11111111 2
#10
b11111111 "
b0 *
b0 2
#11
b0 "
b11111111 *
b11111111 2
#12
b11111111 "
b0 *
b0 2
#13
b0 "
b11111111 *
b11111111 2
#14
b11111111 "
b0 *
b0 2
#15
b0 "
b11111111 *
b11111111 2
#16
b11111111 "
b0 *
b0 2
#17
b0 "
b11111111 *
b11111111 2
#18
b11111111 "
b0 *
b0 2
#19
b0 "
b11111111 *
b11111111 2
#20
b11111111 "
b0 *
b0 2
#21
b0 "
b11111111 *
b11111111 2
#22
b11111111 "
b0 *
b0 2
#23
b0 "
b11111111 *
b11111111 2
#24
b11111111 "
b0 *
b0 2
#25
b0 "
b11111111 *
b11111111 2
#26
b11111111 "
b0 *
b0 2
#27
b0 "
b11111111 *
b11111111 2
#28
b11111111 "
b0 *
b0 2
#29
b0 "
b11111111 *
b11111111 2
#30
b11111111 "
b0 *
b0 2
#31
b0 "
b11111111 *
b11111111 2
#32
b11111111 "
b0 *
b0 2
#33
b0 "
b11111111 *
b11111111 2
#34
b11111111 "
b0 *
b0 2
#35
b0 "
b11111111 *
b11111111 2
#36
b11111111 "
b0 *
b0 2
#37
b0 "
b11111111 *
b11111111 2
#38
b11111111 "
b0 *
b0 2
#39
b0 "
b11111111 *
b11111111 2
#40
b11111111 "
b0 *
b0 2
#41
b0 "
b11111111 *
b11111111 2
#42
b11111111 "
b0 *
b0 2
#43
b0 "
b11111111 *
b11111111 2
#44
b11111111 "
b0 *
b0 2
#45
b0 "
b11111111 *
b11111111 2
#46
b11111111 "
b0 *
b0 2
#47
b0 "
b11111111 *
b11111111 2
#48
b11111111 "
b0 *
b0 2
#49
b0 "
b11111111 *
b11111111 2
#50
b11111111 "
b0 *
b0 2
#51
b0 "
b11111111 *
b11111111 2
#52
b11111111 "
b0 *
b0 2
#53
b0 "
b11111111 *
b11111111 2
#54
b11111111 "
b0 *
b0 2
#55
b0 "
b11111111 *
b11111111 2
#56
b11111111 "
b0 *
b0 2
#57
b0 "
b11111111 *
b11111111 2
#58
b11111111 "
b0 *
b0 2
#59
b0 "
b11111111 *
b11111111 2
#60
b11111111 "
b0 *
b0 2
#61
b0 "
b11111111 *
b11111111 2
#62
b11111111 "
b0 *
b0 2
#63
b0 "
b11111111 *
b11111111 2
#64
b11111111 "
b0 *
b0 2
#65
b0 "
b11111111 *
b11111111 2
#66
b11111111 "
b0 *
b0 2
#67
b0 "
b11111111 *
b11111111 2
#68
b11111111 "
b0 *
b0 2
#69
b0 "
b11111111 *
b11111111 2
#70
b11111111 "
b0 *
b0 2
#71
b0 "
b11111111 *
b11111111 2
#72
b11111111 "
b0 *
b0 2
#73
b0 "
b11111111 *
b11111111 2
#74
b11111111 "
b0 *
b0 2
#75
b0 "
b11111111 *
b11111111 2
#76
b11111111 "
b0 *
b0 2
#77
b0 "
b11111111 *
b11111111 2
#78
b11111111 "
b0 *
b0 2
#79
b0 "
b11111111 *
b11111111 2
#80
b11111111 "
b0 *
b0 2
#81
b0 "
b11111111 *
b11111111 2
#82
b11111111 "
b0 *
b0 2
#83
b0 "
b11111111 *
b11111111 2
#84
b11111111 "
b0 *
b0 2
#85
b0 "
b11111111 *
b11111111 2
#86
b11111111 "
b0 *
b0 2
#87
b0 "
b11111111 *
b11111111 2
#88
b11111111 "
b0 *
b0 2
#89
b0 "
b11111111 *
b11111111 2
#90
b11111111 "
b0 *
b0 2
#91
b0 "
b11111111 *
b11111111 2
#92
b11111111 "
b0 *
b0 2
#93
b0 "
b11111111 *
b11111111 2
#94
b11111111 "
b0 *
b0 2
#95
b0 "
b11111111 *
b11111111 2
#96
b11111111 "
b0 *
b0 2
#97
b0 "
b11111111 *
b11111111 2
#98
b11111111 "
b0 *
b0 2
#99
b0 "
b11111111 *
b11111111 2
#100
b11111111 "
b0 *
b0 2
#101
b0 "
b11111111 *
b11111111 2
#102
b11111111 "
b0 *
b0 2
#103
b0 "
b11111111 *
b11111111 2
#104
b11111111 "
b0 *
b0 2
#105
b0 "
b11111111 *
b11111111 2
#106
b11111111 "
b0 *
b0 2
#107
b0 "
b11111111 *
b11111111 2
#108
b11111111 "
b0 *
b0 2
#109
b0 "
b11111111 *
b11111111 2
#110
b11111111 "
b0 *
b0 2
#111
b0 "
b11111111 *
b11111111 2
#112
b11111111 "
b0 *
b0 2
#113
b0 "
b11111111 *
b11111111 2
#114
b11111111 "
b0 *
b0 2
#115
b0 "
b11111111 *
b11111111 2
#116
b11111111 "
b0 *
b0 2
#117
b0 "
b11111111 *
b11111111 2
#118
b11111111 "
b0 *
b0 2
#119
b0 "
b11111111 *
b11111111 2
#120
b11111111 "
b0 *
b0 2
#121
b0 "
b11111111 *
b11111111 2
#122
b11111111 "
b0 *
b0 2
#123
b0 "
b11111111 *
b11111111 2
#124
b11111111 "
b0 *
b0 2
#125
b0 "
b11111111 *
b11111111 2
#126
b11111111 "
b0 *
b0 2
#127
b0 "
b11111111 *
b11111111 2
#128
b11111111 "
b0 *
b0 2
#129
b0 "
b11111111 *
b11111111 2
#130
b11111111 "
b0 *
b0 2
#131
b0 "
b11111111 *
b11111111 2
#132
b11111111 "
b0 *
b0 2
#133
b0 "
b11111111 *
b11111111 2
#134
b11111111 "
b0 *
b0 2
#135
b0 "
b11111111 *
b11111111 2
#136
b11111111 "
b0 *
b0 2
#137
b0 "
b11111111 *
b11111111 2
#138
b11111111 "
b0 *
b0 2
#139
b0 "
b11111111 *
b11111111 2
#140
b11111111 "
b0 *
b0 2
#141
b0 "
b11111111 *
b11111111 2
#142
b11111111 "
b0 *
b0 2
#143
b0 "
b11111111 *
b11111111 2
#144
b11111111 "
b0 *
b0 2
#145
b0 "
b11111111 *
b11111111 2
#146
b11111111 "
b0 *
b0 2
#147
b0 "
b11111111 *
b11111111 2
#148
b11111111 "
b0 *
b0 2
#149
b0 "
b11111111 *
b11111111 2
#150
b11111111 "
b0 *
b0 2
#151
b0 "
b11111111 *
b11111111 2
#152
b11111111 "
b0 *
b0 2
#153
b0 "
b11111111 *
b11111111 2
#154
b11111111 "
b0 *
b0 2
#155
b0 "
b11111111 *
b11111111 2
#156
b11111111 "
b0 *
b0 2
#157
b0 "
b11111111 *
b11111111 2
#158
b11111111 "
b0 *
b0 2
#159
b0 "
b11111111 *
b11111111 2
#160
b11111111 "
b0 *
b0 2
#161
b0 "
b11111111 *
b11111111 2
#162
b11111111 "
b0 *
b0 2
#163
b0 "
b11111111 *
b11111111 2
#164
b11111111 "
b0 *
b0 2
#165
b0 "
b11111111 *
b11111111 2
#166
b11111111 "
b0 *
b0 2
#167
b0 "
b11111111 *
b11111111 2
#168
b11111111 "
b0 *
b0 2
#169
b0 "
b11111111 *
b11111111 2
#170
b11111111 "
b0 *
b0 2
#171
b0 "
b11111111 *
b11111111 2
#172
b11111111 "
b0 *
b0 2
#173
b0 "
b11111111 *
b11111111 2
#174
b11111111 "
b0 *
b0 2
#175
b0 "
b11111111 *
b11111111 2
#176
b11111111 "
b0 *
b0 2
#177
b0 "
b11111111 *
b11111111 2
#178
b11111111 "
b0 *
b0 2
#179
b0 "
b11111111 *
b11111111 2
#180
b11111111 "
b0 *
b0 2
#181
b0 "
b11111111 *
b11111111 2
#182
b11111111 "
b0 *
b0 2
#183
b0 "
b11111111 *
b11111111 2
#184
b11111111 "
b0 *
b0 2
#185
b0 "
b11111111 *
b11111111 2
#186
b11111111 "
b0 *
b0 2
#187
b0 "
b11111111 *
b11111111 2
#188
b11111111 "
b0 *
b0 2
#189
b0 "
b11111111 *
b11111111 2
#190
b11111111 "
b0 *
b0 2
#191
b0 "
b11111111 *
b11111111 2
#192
b11111111 "
b0 *
b0 2
#193
b0 "
b11111111 *
b11111111 2
#194
b11111111 "
b0 *
b0 2
#195
b0 "
b11111111 *
b11111111 2
#196
b11111111 "
b0 *
b0 2
#197
b0 "
b11111111 *
b11111111 2
#198
b11111111 "
b0 *
b0 2
#199
b0 "
b11111111 *
b11111111 2
#200
b11111111 "
b0 *
b0 2
#201
b0 "
b11111111 *
b11111111 2
#202
b11111111 "
b0 *
b0 2
#203
b0 "
b11111111 *
b11111111 2
#204
b11111111 "
b0 *
b0 2
#205
b0 "
b11111111 *
b11111111 2
#206
b11111111 "
b0 *
b0 2
#207
b0 "
b11111111 *
b11111111 2
#208
b11111111 "
b0 *
b0 2
#209
b0 "
b11111111 *
b11111111 2
#210
b11111111 "
b0 *
b0 2
#211
b0 "
b11111111 *
b11111111 2
#212
b11111111 "
b0 *
b0 2
#213
b0 "
b11111111 *
b11111111 2
#214
b11111111 "
b0 *
b0 2
#215
b0 "
b11111111 *
b11111111 2
#216
b11111111 "
b0 *
b0 2
#217
b0 "
b11111111 *
b11111111 2
#218
b11111111 "
b0 *
b0 2
#219
b0 "
b11111111 *
b11111111 2
#220
b11111111 "
b0 *
b0 2
#221
b0 "
b11111111 *
b11111111 2
#222
b11111111 "
b0 *
b0 2
#223
b0 "
b11111111 *
b11111111 2
#224
b11111111 "
b0 *
b0 2
#225
b0 "
b11111111 *
b11111111 2
#226
b11111111 "
b0 *
b0 2
#227
b0 "
b11111111 *
b11111111 2
#228
b11111111 "
b0 *
b0 2
#229
b0 "
b11111111 *
b11111111 2
#230
b11111111 "
b0 *
b0 2
#231
b0 "
b11111111 *
b11111111 2
#232
b11111111 "
b0 *
b0 2
#233
b0 "
b11111111 *
b11111111 2
#234
b11111111 "
b0 *
b0 2
#235
b0 "
b11111111 *
b11111111 2
#236
b11111111 "
b0 *
b0 2
#237
b0 "
b11111111 *
b11111111 2
#238
b11111111 "
b0 *
b0 2
#239
b0 "
b11111111 *
b11111111 2
#240
b11111111 "
b0 *
b0 2
#241
b0 "
b11111111 *
b11111111 2
#242
b11111111 "
b0 *
b0 2
#243
b0 "
b11111111 *
b11111111 2
#244
b11111111 "
b0 *
b0 2
#245
b0 "
b11111111 *
b11111111 2
#246
b11111111 "
b0 *
b0 2
#247
b0 "
b11111111 *
b11111111 2
#248
b11111111 "
b0 *
b0 2
#249
b0 "
b11111111 *
b11111111 2
#250
b11111111 "
b0 *
b0 2
#251
b0 "
b11111111 *
b11111111 2
#252
b11111111 "
b0 *
b0 2
#253
b0 "
b11111111 *
b11111111 2
#254
b11111111 "
b0 *
b0 2
#255
b0 "
b11111111 *
b11111111 2
#256
b11111111 "
b0 *
b0 2
#257
b0 "
b11111111 *
b11111111 2
#258
b11111111 "
b0 *
b0 2
#259
b0 "
b11111111 *
b11111111 2
#260
b11111111 "
b0 *
b0 2
#261
b0 "
b11111111 *
b11111111 2
#262
b11111111 "
b0 *
b0 2
#263
b0 "
b11111111 *
b11111111 2
#264
b11111111 "
b0 *
b0 2
#265
b0 "
b11111111 *
b11111111 2
#266
b11111111 "
b0 *
b0 2
#267
b0 "
b11111111 *
b11111111 2
#268
b11111111 "
b0 *
b0 2
#269
b0 "
b11111111 *
b11111111 2
#270
b11111111 "
b0 *
b0 2
#271
b0 "
b11111111 *
b11111111 2
#272
b11111111 "
b0 *
b0 2
#273
b0 "
b11111111 *
b11111111 2
#274
b11111111 "
b0 *
b0 2
#275
b0 "
b11111111 *
b11111111 2
#276
b11111111 "
b0 *
b0 2
#277
b0 "
b11111111 *
b11111111 2
#278
b11111111 "
b0 *
b0 2
#279
b0 "
b11111111 *
b11111111 2
#280
b11111111 "
b0 *
b0 2
#281
b0 "
b11111111 *
b11111111 2
#282
b11111111 "
b0 *
b0 2
#283
b0 "
b11111111 *
b11111111 2
#284
b11111111 "
b0 *
b0 2
#285
b0 "
b11111111 *
b11111111 2
#286
b11111111 "
b0 *
b0 2
#287
b0 "
b11111111 *
b11111111 2
#288
b11111111 "
b0 *
b0 2
#289
b0 "
b11111111 *
b11111111 2
#290
b11111111 "
b0 *
b0 2
#291
b0 "
b11111111 *
b11111111 2
#292
b11111111 "
b0 *
b0 2
#293
b0 "
b11111111 *
b11111111 2
#294
b11111111 "
b0 *
b0 2
#295
b0 "
b11111111 *
b11111111 2
#296
b11111111 "
b0 *
b0 2
#297
b0 "
b11111111 *
b11111111 2
#298
b11111111 "
b0 *
b0 2
#299
b0 "
b11111111 *
b11111111 2
#300
b11111111 "
b0 *
b0 2
#301
b0 "
b11111111 *
b11111111 2
#302
b11111111 "
b0 *
b0 2
#303
b0 "
b11111111 *
b11111111 2
#304
b11111111 "
b0 *
b0 2
#305
b0 "
b11111111 *
b11111111 2
#306
b11111111 "
b0 *
b0 2
#307
b0 "
b11111111 *
b11111111 2
#308
b11111111 "
b0 *
b0 2
#309
b0 "
b11111111 *
b11111111 2
#310
b11111111 "
b0 *
b0 2
#311
b0 "
b11111111 *
b11111111 2
#312
b11111111 "
b0 *
b0 2
#313
b0 "
b11111111 *
b11111111 2
#314
b11111111 "
b0 *
b0 2
#315
b0 "
b11111111 *
b11111111 2
#316
b11111111 "
b0 *
b0 2
#317
b0 "
b11111111 *
b11111111 2
#318
b11111111 "
b0 *
b0 2
#319
b0 "
b11111111 *
b11111111 2
#320
b11111111 "
b0 *
b0 2
#321
b0 "
b11111111 *
b11111111 2
#322
b11111111 "
b0 *
b0 2
#323
b0 "
b11111111 *
b11111111 2
#324
b11111111 "
b0 *
b0 2
#325
b0 "
b11111111 *
b11111111 2
#326
b11111111 "
b0 *
b0 2
#327
b0 "
b11111111 *
b11111111 2
#328
b11111111 "
b0 *
b0 2
#329
b0 "
b11111111 *
b11111111 2
#330
b11111111 "
b0 *
b0 2
#331
b0 "
b11111111 *
b11111111 2
#332
b11111111 "
b0 *
b0 2
#333
b0 "
b11111111 *
b11111111 2
#334
b11111111 "
b0 *
b0 2
#335
b0 "
b11111111 *
b11111111 2
#336
b11111111 "
b0 *
b0 2
#337
b0 "
b11111111 *
b11111111 2
#338
b11111111 "
b0 *
b0 2
#339
b0 "
b11111111 *
b11111111 2
#340
b11111111 "
b0 *
b0 2
#341
b0 "
b11111111 *
b11111111 2
#342
b11111111 "
b0 *
b0 2
#343
b0 "
b11111111 *
b11111111 2
#344
b11111111 "
b0 *
b0 2
#345
b0 "
b11111111 *
b11111111 2
#346
b11111111 "
b0 *
b0 2
#347
b0 "
b11111111 *
b11111111 2
#348
b11111111 "
b0 *
b0 2
#349
b0 "
b11111111 *
b11111111 2
#350
b11111111 "
b0 *
b0 2
#351
b0 "
b11111111 *
b11111111 2
#352
b11111111 "
b0 *
b0 2
#353
b0 "
b11111111 *
b11111111 2
#354
b11111111 "
b0 *
b0 2
#355
b0 "
b11111111 *
b11111111 2
#356
b11111111 "
b0 *
b0 2
#357
b0 "
b11111111 *
b11111111 2
#358
b11111111 "
b0 *
b0 2
#359
b0 "
b11111111 *
b11111111 2
#360
b11111111 "
b0 *
b0 2
#361
b0 "
b11111111 *
b11111111 2
#362
b11111111 "
b0 *
b0 2
#363
b0 "
b11111111 *
b11111111 2
#364
b11111111 "
b0 *
b0 2
#365
b0 "
b11111111 *
b11111111 2
#366
b11111111 "
b0 *
b0 2
#367
b0 "
b11111111 *
b11111111 2
#368
b11111111 "
b0 *
b0 2
#369
b0 "
b11111111 *
b11111111 2
#370
b11111111 "
b0 *
b0 2
#371
b0 "
b11111111 *
b11111111 2
#372
b11111111 "
b0 *
b0 2
#373
b0 "
b11111111 *
b11111111 2
#374
b11111111 "
b0 *
b0 2
#375
b0 "
b11111111 *
b11111111 2
#376
b11111111 "
b0 *
b0 2
#377
b0 "
b11111111 *
b11111111 2
#378
b11111111 "
b0 *
b0 2
#379
b0 "
b11111111 *
b11111111 2
#380
b11111111 "
b0 *
b0 2
#381
b0 "
b11111111 *
b11111111 2
#382
b11111111 "
b0 *
b0 2
#383
b0 "
b11111111 *
b11111111 2
#384
b11111111 "
b0 *
b0 2
#385
b0 "
b11111111 *
b11111111 2
#386
b11111111 "
b0 *
b0 2
#387
b0 "
b11111111 *
b11111111 2
#388
b11111111 "
b0 *
b0 2
#389
b0 "
b11111111 *
b11111111 2
#390
b11111111 "
b0 *
b0 2
#391
b0 "
b11111111 *
b11111111 2
#392
b11111111 "
b0 *
b0 2
#393
b0 "
b11111111 *
b11111111 2
#394
b11111111 "
b0 *
b0 2
#395
b0 "
b11111111 *
b11111111 2
#396
b11111111 "
b0 *
b0 2
#397
b0 "
b11111111 *
b11111111 2
#398
b11111111 "
b0 *
b0 2
#399
b0 "
b11111111 *
b11111111 2
#400
b11111111 "
b0 *
b0 2
#401
b0 "
b11111111 *
b11111111 2
#402
b11111111 "
b0 *
b0 2
#403
b0 "
b11111111 *
b11111111 2
#404
b11111111 "
b0 *
b0 2
#405
b0 "
b11111111 *
b11111111 2
#406
b11111111 "
b0 *
b0 2
#407
b0 "
b11111111 *
b11111111 2
#408
b11111111 "
b0 *
b0 2
#409
b0 "
b11111111 *
b11111111 2
#410
b11111111 "
b0 *
b0 2
#411
b0 "
b11111111 *
b11111111 2
#412
b11111111 "
b0 *
b0 2
#413
b0 "
b11111111 *
b11111111 2
#414
b11111111 "
b0 *
b0 2
#415
b0 "
b11111111 *
b11111111 2
#416
b11111111 "
b0 *
b0 2
#417
b0 "
b11111111 *
b11111111 2
#418
b11111111 "
b0 *
b0 2
#419
b0 "
b11111111 *
b11111111 2
#420
b11111111 "
b0 *
b0 2
#421
b0 "
b11111111 *
b11111111 2
#422
b11111111 "
b0 *
b0 2
#423
b0 "
b11111111 *
b11111111 2
#424
b11111111 "
b0 *
b0 2
#425
b0 "
b11111111 *
b11111111 2
#426
b11111111 "
b0 *
b0 2
#427
b0 "
b11111111 *
b11111111 2
#428
b11111111 "
b0 *
b0 2
#429
b0 "
b11111111 *
b11111111 2
#430
b11111111 "
b0 *
b0 2
#431
b0 "
b11111111 *
b11111111 2
#432
b11111111 "
b0 *
b0 2
#433
b0 "
b11111111 *
b11111111 2
#434
b11111111 "
b0 *
b0 2
#435
b0 "
b11111111 *
b11111111 2
#436
b11111111 "
b0 *
b0 2
#437
b0 "
b11111111 *
b11111111 2
#438
b11111111 "
b0 *
b0 2
#439
b0 "
b11111111 *
b11111111 2
#440
b11111111 "
b0 *
b0 2
#441
b0 "
b11111111 *
b11111111 2
#442
b11111111 "
b0 *
b0 2
#443
b0 "
b11111111 *
b11111111 2
#444
b11111111 "
b0 *
b0 2
#445
b0 "
b11111111 *
b11111111 2
#446
b11111111 "
b0 *
b0 2
#447
b0 "
b11111111 *
b11111111 2
#448
b11111111 "
b0 *
b0 2
#449
b0 "
b11111111 *
b11111111 2
#450
b11111111 "
b0 *
b0 2
#451
b0 "
b11111111 *
b11111111 2
#452
b11111111 "
b0 *
b0 2
#453
b0 "
b11111111 *
b11111111 2
#454
b11111111 "
b0 *
b0 2
#455
b0 "
b11111111 *
b11111111 2
#456
b11111111 "
b0 *
b0 2
#457
b0 "
b11111111 *
b11111111 2
#458
b11111111 "
b0 *
b0 2
#459
b0 "
b11111111 *
b11111111 2
#460
b11111111 "
b0 *
b0 2
#461
b0 "
b11111111 *
b11111111 2
#462
b11111111 "
b0 *
b0 2
#463
b0 "
b11111111 *
b11111111 2
#464
b11111111 "
b0 *
b0 2
#465
b0 "
b11111111 *
b11111111 2
#466
b11111111 "
b0 *
b0 2
#467
b0 "
b11111111 *
b11111111 2
#468
b11111111 "
b0 *
b0 2
#469
b0 "
b11111111 *
b11111111 2
#470
b11111111 "
b0 *
b0 2
#471
b0 "
b11111111 *
b11111111 2
#472
b11111111 "
b0 *
b0 2
#473
b0 "
b11111111 *
b11111111 2
#474
b11111111 "
b0 *
b0 2
#475
b0 "
b11111111 *
b11111111 2
#476
b11111111 "
b0 *
b0 2
#477
b0 "
b11111111 *
b11111111 2
#478
b11111111 "
b0 *
b0 2
#479
b0 "
b11111111 *
b11111111 2
#480
b11111111 "
b0 *
b0 2
#481
b0 "
b11111111 *
b11111111 2
#482
b11111111 "
b0 *
b0 2
#483
b0 "
b11111111 *
b11111111 2
#484
b11111111 "
b0 *
b0 2
#485
b0 "
b11111111 *
b11111111 2
#486
b11111111 "
b0 *
b0 2
#487
b0 "
b11111111 *
b11111111 2
#488
b11111111 "
b0 *
b0 2
#489
b0 "
b11111111 *
b11111111 2
#490
b11111111 "
b0 *
b0 2
#491
b0 "
b11111111 *
b11111111 2
#492
b11111111 "
b0 *
b0 2
#493
b0 "
b11111111 *
b11111111 2
#494
b11111111 "
b0 *
b0 2
#495
b0 "
b11111111 *
b11111111 2
#496
b11111111 "
b0 *
b0 2
#497
b0 "
b11111111 *
b11111111 2
#498
b11111111 "
b0 *
b0 2
#499
b0 "
b11111111 *
b11111111 2
#500
b11111111 "
b0 *
b0 2
#501
b0 "
b11111111 *
b11111111 2
#502
b11111111 "
b0 *
b0 2
#503
b0 "
b11111111 *
b11111111 2
#504
b11111111 "
b0 *
b0 2
#505
b0 "
b11111111 *
b11111111 2
#506
b11111111 "
b0 *
b0 2
#507
b0 "
b11111111 *
b11111111 2
#508
b11111111 "
b0 *
b0 2
#509
b0 "
b11111111 *
b11111111 2
#510
b11111111 "
b0 *
b0 2
#511
b0 "
b11111111 *
b11111111 2
#512
b11111111 "
b0 *
b0 2
1s
1t
#513
b0 "
b11111111 *
b11111111 2
b0 b
#514
b11111111 "
b0 *
b0 2
#515
b0 "
b11111111 *
b11111111 2
#516
b11111111 "
b10010110 *
b0 2
#517
b0 "
b10011001 *
b11111111 2
#518
b11111111 "
b1101001 2
#519
b0 "
b10011001 2
#520
b11111111 "
0s
#521
b0 "
b0 Z
1r
#522
b11111111 "
b1 :
b1111000001111000 b
0r
#523
b0 "
b10010110 *
#524
b11111111 "
#525
b0 "
b1101001 2
#526
b11111111 "
#527
b0 "
#528
b11111111 "
#529
b0 "
b11 Z
1r
#530
b11111111 "
b10 :
b11110111011100 b
0r
#531
b0 "
#532
b11111111 "
b10011001 *
#533
b0 "
#534
b11111111 "
b10010110 *
b10011001 2
#535
b0 "
#536
b11111111 "
b1101001 2
#537
b0 "
b11111 Z
1r
#538
b11111111 "
b11 :
b10011010010 b
0r
#539
b0 "
#540
b11111111 "
b10011001 *
#541
b0 "
#542
b11111111 "
b10011001 2
#543
b0 "
#544
b11111111 "
#545
b0 "
b10010110 *
#546
b11111111 "
b110 Z
1r
#547
b0 "
b1101001 2
b100 :
b110000011010101 b
0r
#548
b11111111 "
#549
b0 "
#550
b11111111 "
b10011001 *
#551
b0 "
#552
b11111111 "
b10010110 *
b10011001 2
#553
b0 "
#554
b11111111 "
b1101001 2
b1 Z
1r
#555
b0 "
b101 :
b110000010110001 b
0r
#556
b11111111 "
#557
b0 "
b10011001 *
#558
b11111111 "
b10010110 *
#559
b0 "
b10011001 2
#560
b11111111 "
b1101001 2
#561
b0 "
#562
b11111111 "
b100000 Z
1r
#563
b0 "
b110 :
b111010100011000 b
0r
#564
b11111111 "
#565
b0 "
#566
b11111111 "
#567
b0 "
#568
b11111111 "
#569
b0 "
#570
b11111111 "
b10011001 *
b10 Z
1r
#571
b0 "
b10010110 *
b111 :
b100111111010110 b
0r
#572
b11111111 "
b10011001 2
#573
b0 "
b1101001 2
#574
b11111111 "
b10011001 *
#575
b0 "
b10010110 *
#576
b11111111 "
b10011001 2
#577
b0 "
b1101001 2
#578
b11111111 "
b0 Z
1r
#579
b0 "
b1000 :
b100001110001100 b
0r
#580
b11111111 "
#581
b0 "
#582
b11111111 "
#583
b0 "
#584
b11111111 "
#585
b0 "
#586
b11111111 "
b1 Z
1r
#587
b0 "
b1001 :
b1010111111010110 b
0r
#588
b11111111 "
#589
b0 "
b10011001 *
#590
b11111111 "
b10010110 *
#591
b0 "
b10011001 2
#592
b11111111 "
b1101001 2
#593
b0 "
#594
b11111111 "
b0 Z
1r
#595
b0 "
b1010 :
b100001101101100 b
0r
#596
b11111111 "
#597
b0 "
#598
b11111111 "
#599
b0 "
#600
b11111111 "
#601
b0 "
#602
b11111111 "
b100 Z
1r
#603
b0 "
b1011 :
b1111101110101 b
0r
#604
b11111111 "
#605
b0 "
#606
b11111111 "
#607
b0 "
b10011001 *
#608
b11111111 "
b10010110 *
#609
b0 "
b10011001 2
#610
b11111111 "
b1101001 2
b0 Z
1r
#611
b0 "
b1100 :
b1101010001001101 b
0r
#612
b11111111 "
#613
b0 "
#614
b11111111 "
#615
b0 "
#616
b11111111 "
#617
b0 "
#618
b11111111 "
1r
#619
b0 "
b1101 :
b110100101001101 b
0r
#620
b11111111 "
#621
b0 "
#622
b11111111 "
#623
b0 "
#624
b11111111 "
#625
b0 "
#626
b11111111 "
1r
#627
b0 "
b1110 :
b110100111110000 b
0r
#628
b11111111 "
#629
b0 "
#630
b11111111 "
#631
b0 "
#632
b11111111 "
#633
b0 "
#634
b11111111 "
b11110000 Z
#635
b0 "
#636
b11111111 "
#637
b0 "
#638
b11111111 "
#639
b0 "
#640
b11111111 "
#641
b0 "
b10011001 *
#642
b11111111 "
b1101001 Z
#643
b0 "
b10011001 2
#644
b11111111 "
#645
b0 "
#646
b11111111 "
b10010110 *
#647
b0 "
#648
b11111111 "
b10011001 *
b1101001 2
#649
b0 "
#650
b11111111 "
b10010110 *
b10011001 2
#651
b0 "
b10011001 *
b1111110 Z
#652
b11111111 "
b1101001 2
#653
b0 "
b10010110 *
b10011001 2
#654
b11111111 "
#655
b0 "
b10011001 *
b1101001 2
#656
b11111111 "
#657
b0 "
b10011001 2
#658
b11111111 "
#659
b0 "
b0 :
#660
b11111111 "
#661
b0 "
b10010110 *
#662
b11111111 "
b0 *
#663
b0 "
b11111111 *
b1101001 2
#664
b11111111 "
b0 *
b0 2
#665
b0 "
b11111111 *
b11111111 2
#666
b11111111 "
b0 *
b0 2
#667
b0 "
b11111111 *
b11111111 2
#668
b11111111 "
b0 *
b0 2
#669
b0 "
b11111111 *
b11111111 2
#670
b11111111 "
b0 *
b0 2
#671
b0 "
b11111111 *
b11111111 2
#672
b11111111 "
b0 *
b0 2
#673
b0 "
b11111111 *
b11111111 2
#674
b11111111 "
b0 *
b0 2
#675
b0 "
b11111111 *
b11111111 2
#676
b11111111 "
b0 *
b0 2
#677
b0 "
b11111111 *
b11111111 2
#678
b11111111 "
b0 *
b0 2
#679
b0 "
b11111111 *
b11111111 2
#680
b11111111 "
b0 *
b0 2
#681
b0 "
b11111111 *
b11111111 2
#682
b11111111 "
b0 *
b0 2
#683
b0 "
b11111111 *
b11111111 2
#684
b11111111 "
b0 *
b0 2
#685
b0 "
b11111111 *
b11111111 2
#686
b11111111 "
b0 *
b0 2
#687
b0 "
b11111111 *
b11111111 2
#688
b11111111 "
b0 *
b0 2
#689
b0 "
b11111111 *
b11111111 2
#690
b11111111 "
b0 *
b0 2
#691
b0 "
b11111111 *
b11111111 2
#692
b11111111 "
b0 *
b0 2
#693
b0 "
b11111111 *
b11111111 2
#694
b11111111 "
b0 *
b0 2
#695
b0 "
b11111111 *
b11111111 2
#696
b11111111 "
b0 *
b0 2
#697
b0 "
b11111111 *
b11111111 2
#698
b11111111 "
b0 *
b0 2
#699
b0 "
b11111111 *
b11111111 2
#700
b11111111 "
b0 *
b0 2
#701
b0 "
b11111111 *
b11111111 2
#702
b11111111 "
b0 *
b0 2
#703
b0 "
b11111111 *
b11111111 2
#704
b11111111 "
b0 *
b0 2
#705
b0 "
b11111111 *
b11111111 2
#706
b11111111 "
b0 *
b0 2
#707
b0 "
b11111111 *
b11111111 2
#708
b11111111 "
b0 *
b0 2
#709
b0 "
b11111111 *
b11111111 2
#710
b11111111 "
b0 *
b0 2
#711
b0 "
b11111111 *
b11111111 2
#712
b11111111 "
b0 *
b0 2
#713
b0 "
b11111111 *
b11111111 2
#714
b11111111 "
b0 *
b0 2
#715
b0 "
b11111111 *
b11111111 2
#716
b11111111 "
b0 *
b0 2
#717
b0 "
b11111111 *
b11111111 2
#718
b11111111 "
b0 *
b0 2
#719
b0 "
b11111111 *
b11111111 2
#720
b11111111 "
b0 *
b0 2
#721
b0 "
b11111111 *
b11111111 2
#722
b11111111 "
b0 *
b0 2
#723
b0 "
b11111111 *
b11111111 2
#724
b11111111 "
b0 *
b0 2
#725
b0 "
b11111111 *
b11111111 2
#726
b11111111 "
b0 *
b0 2
#727
b0 "
b11111111 *
b11111111 2
#728
b11111111 "
b0 *
b0 2
#729
b0 "
b11111111 *
b11111111 2
#730
b11111111 "
b0 *
b0 2
#731
b0 "
b11111111 *
b11111111 2
#732
b11111111 "
b0 *
b0 2
#733
b0 "
b11111111 *
b11111111 2
#734
b11111111 "
b0 *
b0 2
#735
b0 "
b11111111 *
b11111111 2
